…
beta_estimate = mothdata %>%
    filter(ts_code == "000001.SZ")%>%
  mutate(roll_capm_estimation(cur_data(),months = 60,min_obs = 48))%>%na.omit()

## Warning: There was 1 warning in `mutate()`.
## ℹ In argument: `roll_capm_estimation(cur_data(), months = 60, min_obs = 48)`.
## Caused by warning:
## ! `cur_data()` was deprecated in dplyr 1.1.0.
## ℹ Please use `pick()` instead.

tail(beta_estimate,60)

## # A tibble: 60 × 7
##    ts_code   Tradedate trade_date ret_excess mkt_excess month       beta
##    <chr>     <chr>     <date>          <dbl>      <dbl> <date>     <dbl>
##  1 000001.SZ 2018-03   2018-03-30   -0.0993     0.0374  2018-03-30 0.505
##  2 000001.SZ 2018-04   2018-04-27   -0.00797   -0.0494  2018-04-27 0.499
##  3 000001.SZ 2018-05   2018-05-31   -0.0651    -0.0358  2018-05-31 0.487
##  4 000001.SZ 2018-06   2018-06-29   -0.111     -0.130   2018-06-29 0.340
##  5 000001.SZ 2018-07   2018-07-31    0.0334    -0.00742 2018-07-31 0.345
##  6 000001.SZ 2018-08   2018-08-31    0.0730    -0.0832  2018-08-31 0.316
##  7 000001.SZ 2018-09   2018-09-28    0.0885    -0.00851 2018-09-28 0.305
##  8 000001.SZ 2018-10   2018-10-31   -0.0150    -0.0983  2018-10-31 0.313
##  9 000001.SZ 2018-11   2018-11-30   -0.0529     0.0519  2018-11-30 0.313
## 10 000001.SZ 2018-12   2018-12-28   -0.0972    -0.0476  2018-12-28 0.314
## # … with 50 more rows
…
